<svg xmlns="http://www.w3.org/2000/svg" width="28" height="28" viewBox="0 0 28 28">
  <g id="Group_5290" data-name="Group 5290" transform="translate(18866 -1368)">
    <rect id="Rectangle_620" data-name="Rectangle 620" width="28" height="28" transform="translate(-18866 1368)" fill="none"/>
    <g id="Group_5261" data-name="Group 5261" transform="translate(-18865.5 1367.116)">
      <g id="Group_5260" data-name="Group 5260" transform="translate(2.5 7.886)">
        <circle id="Ellipse_80" data-name="Ellipse 80" cx="4.747" cy="4.747" r="4.747" transform="translate(2.395 0)" fill="none" stroke="#fff" stroke-linecap="round" stroke-linejoin="round" stroke-width="1"/>
        <path id="Path_1007" data-name="Path 1007" d="M16,163.706a8.728,8.728,0,0,1,14.282,0" transform="translate(-16 -150.503)" fill="none" stroke="#fff" stroke-linecap="round" stroke-linejoin="round" stroke-width="1"/>
      </g>
      <g id="Group_5259" data-name="Group 5259" transform="translate(16.189 7.886)">
        <path id="Path_1006" data-name="Path 1006" d="M155.4,56.173A4.976,4.976,0,0,1,156.687,56a4.747,4.747,0,0,1,0,9.494" transform="translate(-155.4 -56)" fill="none" stroke="#fff" stroke-linecap="round" stroke-linejoin="round" stroke-width="1"/>
        <path id="Path_1008" data-name="Path 1008" d="M169.5,160a8.718,8.718,0,0,1,7.141,3.709" transform="translate(-168.101 -150.506)" fill="none" stroke="#fff" stroke-linecap="round" stroke-linejoin="round" stroke-width="1"/>
      </g>
    </g>
  </g>
</svg>
